<?xml version="1.0" encoding="UTF-8" standalone="no"?>
<!-- Created with Inkscape (http://www.inkscape.org/) -->

<svg
   width="100.21915mm"
   height="45.691628mm"
   viewBox="0 0 100.21915 45.691628"
   version="1.1"
   id="svg5"
   inkscape:version="1.2.2 (b0a8486541, 2022-12-01)"
   sodipodi:docname="nest-vector.svg"
   inkscape:export-filename="nest-vector.png"
   inkscape:export-xdpi="200"
   inkscape:export-ydpi="200"
   xmlns:inkscape="http://www.inkscape.org/namespaces/inkscape"
   xmlns:sodipodi="http://sodipodi.sourceforge.net/DTD/sodipodi-0.dtd"
   xmlns="http://www.w3.org/2000/svg"
   xmlns:svg="http://www.w3.org/2000/svg">
  <sodipodi:namedview
     id="namedview7"
     pagecolor="#505050"
     bordercolor="#ffffff"
     borderopacity="1"
     inkscape:pageshadow="0"
     inkscape:pageopacity="0"
     inkscape:pagecheckerboard="1"
     inkscape:document-units="mm"
     showgrid="false"
     units="mm"
     inkscape:zoom="0.56442058"
     inkscape:cx="502.28501"
     inkscape:cy="402.18236"
     inkscape:window-width="1920"
     inkscape:window-height="1011"
     inkscape:window-x="0"
     inkscape:window-y="0"
     inkscape:window-maximized="1"
     inkscape:current-layer="layer4"
     showguides="true"
     inkscape:guide-bbox="true"
     inkscape:showpageshadow="0"
     inkscape:deskcolor="#505050">
    <sodipodi:guide
       position="-59.688956,231.37079"
       orientation="0,-1"
       id="guide9495"
       inkscape:locked="false" />
    <sodipodi:guide
       position="-22.014276,147.45572"
       orientation="0,-1"
       id="guide10793"
       inkscape:locked="false" />
    <sodipodi:guide
       position="-57.270684,179.69859"
       orientation="0,-1"
       id="guide34239"
       inkscape:locked="false" />
    <sodipodi:guide
       position="-26.395613,33.637311"
       orientation="0,-1"
       id="guide35264"
       inkscape:locked="false" />
    <sodipodi:guide
       position="311.00012,107.94273"
       orientation="0,-1"
       id="guide35266"
       inkscape:locked="false" />
    <sodipodi:guide
       position="-20.491095,75.42195"
       orientation="0,-1"
       id="guide35268"
       inkscape:locked="false" />
    <sodipodi:guide
       position="145.65573,222.64888"
       orientation="1,0"
       id="guide36906"
       inkscape:locked="false" />
    <sodipodi:guide
       position="0.39666862,55.972508"
       orientation="1,0"
       id="guide68643"
       inkscape:locked="false" />
    <sodipodi:guide
       position="10.982945,135.15357"
       orientation="0,-1"
       id="guide72297"
       inkscape:locked="false" />
    <sodipodi:guide
       position="-17.868314,62.873828"
       orientation="0,-1"
       id="guide72299"
       inkscape:locked="false" />
    <sodipodi:guide
       position="29.902805,0.43114057"
       orientation="0,-1"
       id="guide72388"
       inkscape:locked="false" />
  </sodipodi:namedview>
  <defs
     id="defs2" />
  <g
     inkscape:groupmode="layer"
     id="layer8"
     inkscape:label="single colour variant (black)"
     transform="translate(-28.487799,-168.07724)">
    <g
       id="g1205"
       transform="translate(-155.95131,320.3216)"
       inkscape:export-filename="nest-new/nest-secondary-variant-4.png"
       inkscape:export-xdpi="300"
       inkscape:export-ydpi="300">
      <path
         style="color:#000000;fill:#000000;fill-opacity:1;stroke-width:0.813657;stroke-linecap:round;stroke-linejoin:round"
         d="m 228.10612,-133.07393 c -3.10694,-0.0304 -6.2763,0.94011 -8.72769,3.10208 -2.45138,2.16198 -4.066,5.52621 -4.12394,9.74332 -0.0537,3.92749 1.35653,7.41868 3.86488,9.84186 2.50842,2.42319 6.0497,3.74243 10.00545,3.69964 2.80655,-0.0303 4.92377,-0.71358 6.34555,-1.43504 1.42186,-0.72148 2.28532,-1.61462 2.28532,-1.61462 a 2.1069647,2.1069647 0 0 0 -0.11766,-2.97814 2.1069647,2.1069647 0 0 0 -2.97652,0.1176 c 0,0 -0.20707,0.26615 -1.09811,0.71831 -0.89112,0.45217 -2.3282,0.95562 -4.48463,0.97895 -3.00996,0.0325 -5.38665,-0.92922 -7.03056,-2.51729 -1.64384,-1.58807 -2.62088,-3.8372 -2.58076,-6.75247 0.0439,-3.22227 1.13944,-5.26796 2.69841,-6.64283 1.55889,-1.37485 3.70043,-2.06839 5.89901,-2.04687 2.30574,0.0226 4.22768,0.65918 5.5589,1.92451 0.99852,0.94911 1.61967,2.54516 1.92609,4.61501 -4.58121,0.004 -12.65301,-0.01 -12.65301,-0.01 a 2.1069647,2.1069647 0 0 0 -2.11201,2.10092 2.1069647,2.1069647 0 0 0 2.10249,2.11203 c 0,0 11.75685,0.0301 15.07812,0.0112 a 2.1071754,2.1071754 0 0 0 2.09451,-2.07866 c 0.0578,-4.27837 -1.24912,-7.6347 -3.53273,-9.8053 -2.28361,-2.1706 -5.34679,-3.0545 -8.42111,-3.0846 z"
         id="path29745"
         inkscape:export-filename="/home/jchitas/Documents/fedora-nest/nest/nest-single-colour-black.png"
         inkscape:export-xdpi="302.60773"
         inkscape:export-ydpi="302.60773" />
      <path
         id="path29747"
         style="fill:#000000;fill-opacity:1;stroke:none;stroke-width:0.101576px;stroke-linecap:butt;stroke-linejoin:miter;stroke-opacity:1"
         d="m 262.75579,-152.24399 c -0.48551,-0.0103 -0.68608,0.19306 -0.39837,0.83767 0,0 3.25357,5.6839 4.72678,7.01042 1.19965,1.08017 2.61891,2.01478 4.53719,1.69292 1.09974,1.64736 1.04889,2.95595 0.99323,4.25143 -0.0187,0.13161 -0.0285,0.26823 -0.0285,0.41031 v 6.34173 h -2.19517 c -0.66809,0 -1.20861,0.19084 -1.62219,0.57258 -0.4135,0.38173 -0.62057,0.89081 -0.62057,1.52704 0,0.57259 0.20707,1.0497 0.62057,1.43143 0.41358,0.38174 0.9541,0.57258 1.62219,0.57258 h 2.19517 v 11.78636 c 0,1.74961 0.36541,3.32405 1.09713,4.72374 0.73164,1.39968 1.73407,2.51327 3.00654,3.34036 1.2724,0.79528 2.7037,1.19269 4.29432,1.19269 h 0.85882 c 0.82708,0 1.49501,-0.2223 2.00403,-0.66765 0.54076,-0.44536 0.8113,-1.0184 0.8113,-1.71825 0,-0.69983 -0.20659,-1.27237 -0.62009,-1.71772 -0.38176,-0.44536 -0.85881,-0.66766 -1.43146,-0.66766 h -1.6226 c -1.01796,0 -1.87678,-0.42991 -2.5766,-1.28881 -0.69983,-0.85891 -1.05011,-1.92427 -1.05011,-3.1967 v -21.94647 c 0.0415,-0.73041 -0.16639,-1.78542 -0.16639,-1.78542 0,0 2.33145,0.94941 4.37601,-1.57251 0.5672,-0.69966 2.89954,-4.73873 2.89954,-4.73873 0,0 0.49804,-0.735 -0.37412,-0.60255 -0.52765,0.0802 -3.90482,0.33557 -6.21511,1.264 -1.44961,0.58256 -2.71949,2.14914 -2.6474,4.28191 -0.13905,0.0749 -0.31602,0.0705 -0.47135,-0.0475 -0.68762,-1.12143 -0.90365,-1.91691 -0.98127,-2.94659 0,0 1.43838,-4.43556 -2.68873,-6.73913 -1.46401,-0.81711 -6.95953,-1.4154 -8.10809,-1.58491 -0.0806,-0.01 -0.15541,-0.0151 -0.22473,-0.0165 z m 3.59725,2.85874 c 0.01,0.002 0.0163,0.009 0.0163,0.0258 v 5.3e-4 c 0,0.006 0.0122,7.3e-4 0.0179,0.002 1.56458,0.25281 4.04623,2.03656 5.78355,3.96979 0.37697,0.41944 0.26656,0.95598 -0.37721,0.7922 -0.95002,-0.60158 -2.41924,-3.18322 -5.49373,-4.64106 -0.0951,-0.0447 0.0106,-0.15583 0.0529,-0.14883 z m 14.89831,5.10769 c 0,-8.1e-4 0.008,-8.1e-4 0.008,8.2e-4 h 4.9e-4 c 0.0187,0.0623 0.13873,0.0502 0.0521,0.0909 -2.28272,1.08127 -3.37343,2.99649 -4.07878,3.44269 -0.47803,0.12147 -0.56053,-0.27646 -0.28063,-0.58756 1.28997,-1.43386 3.13314,-2.75701 4.2948,-2.94453 0,-3.5e-4 0.008,-0.002 0.008,-0.002 z m -0.37567,12.57805 v 5.2e-4 c -0.69698,2.9e-4 -1.26141,0.19114 -1.69297,0.57257 -0.43189,0.38174 -0.64751,0.89082 -0.64751,1.52704 0,0.5726 0.21562,1.0497 0.64751,1.43144 0.43189,0.38173 0.99681,0.57257 1.69452,0.57257 v -5.1e-4 h 0.97305 v -4.10363 z m 0.97509,5.2e-4 v 4.10362 c 0.69771,0 1.26255,-0.19084 1.69444,-0.57257 0.43197,-0.38174 0.64808,-0.85884 0.64808,-1.43144 0,-0.63622 -0.21611,-1.1453 -0.64808,-1.52704 -0.43189,-0.38174 -0.99673,-0.57257 -1.69444,-0.57257 z" />
      <path
         id="path29749"
         style="font-weight:bold;font-size:47.8451px;line-height:1.25;font-family:Comfortaa;-inkscape-font-specification:'Comfortaa Bold';letter-spacing:0px;word-spacing:0px;fill:#000000;fill-opacity:1;stroke-width:2.99032"
         d="m 186.85961,-132.92476 c -1.1177,-0.009 -2.1252,0.76695 -2.3673,1.90273 -0.2764,1.29809 0.5515,2.57433 1.8495,2.85099 0.4873,0.10381 0.7515,0.29867 1.0775,0.72502 0.326,0.42634 0.6251,1.09901 0.8211,1.82108 0.326,1.201 0.3329,2.2091 0.3261,2.51819 -0.001,0.0296 0,0.0598 0,0.0899 -2e-4,0.004 -5e-4,0.0171 -5e-4,0.0171 h 5e-4 c -2e-4,0.0149 -0.001,0.0294 -0.001,0.0444 v 13.93042 c 0,0.70172 0.2232,1.29198 0.6697,1.77043 0.4785,0.44655 1.0687,0.66973 1.7705,0.66973 0.7336,0 1.3233,-0.22318 1.7699,-0.66973 0.4465,-0.47845 0.6702,-1.06871 0.6702,-1.77043 v -13.93042 c 0,-0.0279 -9e-4,-0.0552 0,-0.0827 2e-4,-1e-5 4e-4,1e-5 6e-4,0 0,-0.10592 0.044,-1.60931 -0.5628,-3.84576 -0.3044,-1.12182 -0.7776,-2.35015 -1.6418,-3.48041 -0.8642,-1.13023 -2.2081,-2.14752 -3.8938,-2.50682 l -5e-4,-5.2e-4 c -0.1623,-0.0345 -0.324,-0.052 -0.4837,-0.0532 z" />
      <path
         id="path29751"
         style="font-weight:bold;font-size:58.645px;line-height:1.25;font-family:Comfortaa;-inkscape-font-specification:'Comfortaa Bold';letter-spacing:0px;word-spacing:0px;fill:#000000;fill-opacity:1;stroke-width:6.79265"
         d="m 200.02033,-132.97235 c -2.09955,0 -3.99222,0.46137 -5.6782,1.3839 v 0 c -0.50438,0.26018 -0.84913,0.63956 -1.02743,1.13791 -0.14359,0.50946 -0.0855,1.01596 0.17468,1.52032 0.26016,0.50437 0.63378,0.83422 1.12035,0.98961 0.52091,0.16637 1.03333,0.11967 1.53736,-0.14005 v 0.001 c 0.89397,-0.33505 1.8665,-0.50281 2.91817,-0.50281 1.4633,0 2.75201,0.28626 3.86538,0.85886 1.14522,0.5408 2.05171,1.38384 2.71973,2.52905 0.66804,1.1452 1.00203,2.62421 1.00203,4.43745 v 11.73882 c 0,0.69985 0.2228,1.28809 0.66816,1.76526 0.47718,0.44536 1.06542,0.66818 1.76528,0.66818 0.69985,0 1.27239,-0.22282 1.71774,-0.66818 0.47718,-0.47717 0.71623,-1.06541 0.71623,-1.76526 v -11.73886 c 0,-2.64033 -0.50906,-4.86697 -1.52703,-6.68021 -0.98615,-1.81324 -2.35403,-3.1811 -4.10365,-4.10363 -1.71781,-0.95434 -3.67443,-1.43143 -5.86941,-1.43143 z"
         sodipodi:nodetypes="scccssccscssscssssccss" />
      <path
         d="m 254.82177,-106.65807 c 6.70978,0 10.23121,-3.47385 10.23121,-7.80427 0,-3.75938 -2.37934,-6.28149 -9.5174,-7.7091 -5.13939,-1.04692 -6.13871,-2.09383 -6.13871,-3.85455 0,-1.80831 2.18899,-2.80764 4.99663,-2.80764 2.42694,0 4.14007,0.47587 5.75803,1.99865 0.95174,0.90416 2.52211,1.23727 3.56902,0.52346 0.99933,-0.76139 1.04692,-1.95107 0.19036,-2.99798 -1.90349,-2.33177 -5.23458,-3.75938 -9.42224,-3.75938 -4.85388,0 -9.75534,2.33176 -9.75534,7.18564 0,3.66421 2.71246,6.2815 9.13671,7.51876 4.94905,0.90415 6.51943,2.28418 6.47184,4.18766 -0.0476,1.90348 -2.04624,3.23592 -5.71045,3.23592 -2.90281,0 -5.4725,-1.28485 -6.567,-2.47453 -0.90417,-0.95174 -2.2366,-1.18967 -3.47386,-0.19035 -1.0945,0.85657 -1.28485,2.33177 -0.33311,3.3311 2.09383,2.09383 6.13873,3.61661 10.56431,3.61661 z"
         style="font-weight:bold;font-size:44.8161px;line-height:1.25;font-family:Comfortaa;-inkscape-font-specification:'Comfortaa Bold';letter-spacing:0px;word-spacing:0px;fill:#000000;fill-opacity:1;stroke-width:2.9742"
         id="path29753" />
    </g>
  </g>
</svg>
