<?xml version="1.0" encoding="UTF-8" standalone="no"?>
<!-- Created with Inkscape (http://www.inkscape.org/) -->

<svg
   width="454.56558"
   height="212.81345"
   viewBox="0 0 120.27042 56.306875"
   version="1.1"
   id="svg5"
   inkscape:version="1.2 (dc2aedaf03, 2022-05-15)"
   sodipodi:docname="flock-vector.svg"
   inkscape:export-filename="/home/jchitas/Documents/fedora-nest/flock/flock-vector.png"
   inkscape:export-xdpi="275.31113"
   inkscape:export-ydpi="275.31113"
   xmlns:inkscape="http://www.inkscape.org/namespaces/inkscape"
   xmlns:sodipodi="http://sodipodi.sourceforge.net/DTD/sodipodi-0.dtd"
   xmlns="http://www.w3.org/2000/svg"
   xmlns:svg="http://www.w3.org/2000/svg">
  <sodipodi:namedview
     id="namedview7"
     pagecolor="#505050"
     bordercolor="#ffffff"
     borderopacity="1"
     inkscape:pageshadow="0"
     inkscape:pageopacity="0"
     inkscape:pagecheckerboard="1"
     inkscape:document-units="mm"
     showgrid="false"
     width="1114.9606px"
     inkscape:zoom="0.6046995"
     inkscape:cx="324.95479"
     inkscape:cy="345.62622"
     inkscape:window-width="1920"
     inkscape:window-height="1011"
     inkscape:window-x="0"
     inkscape:window-y="0"
     inkscape:window-maximized="1"
     inkscape:current-layer="layer5"
     showguides="true"
     inkscape:guide-bbox="true"
     units="px"
     inkscape:showpageshadow="0"
     inkscape:deskcolor="#505050">
    <sodipodi:guide
       position="102.97779,142.3963"
       orientation="0,-1"
       id="guide20983"
       inkscape:locked="false" />
    <sodipodi:guide
       position="48.672845,134.54807"
       orientation="0,-1"
       id="guide21165"
       inkscape:locked="false" />
    <sodipodi:guide
       position="50.259961,76.688088"
       orientation="0,-1"
       id="guide21167"
       inkscape:locked="false" />
    <sodipodi:guide
       position="50.12855,11.512727"
       orientation="0,-1"
       id="guide21169"
       inkscape:locked="false" />
    <sodipodi:guide
       position="109.14133,151.96518"
       orientation="1,0"
       id="guide21407"
       inkscape:locked="false" />
    <sodipodi:guide
       position="259.14464,160.03921"
       orientation="1,0"
       id="guide21409"
       inkscape:locked="false" />
    <sodipodi:guide
       position="45.556474,69.051788"
       orientation="0,-1"
       id="guide21758"
       inkscape:locked="false" />
    <sodipodi:guide
       position="57.236628,2.9837099"
       orientation="0,-1"
       id="guide21760"
       inkscape:locked="false" />
    <sodipodi:guide
       position="58.150917,-53.263772"
       orientation="0,-1"
       id="guide25809"
       inkscape:locked="false" />
    <sodipodi:guide
       position="54.688296,-62.513081"
       orientation="0,-1"
       id="guide25811"
       inkscape:locked="false" />
  </sodipodi:namedview>
  <defs
     id="defs2" />
  <g
     inkscape:groupmode="layer"
     id="layer9"
     inkscape:label="one colour (navy)"
     transform="translate(-17.678467,-140.41051)">
    <g
       id="g2047"
       transform="translate(142.01542,428.42802)"
       style="fill:#294172">
      <path
         id="path2031"
         style="color:#000000;font-size:44.8161px;line-height:1.25;font-family:Titillium;-inkscape-font-specification:Titillium;letter-spacing:0px;word-spacing:0px;fill:#294172;fill-opacity:1;stroke-width:0.427852;stroke-linecap:round;stroke-linejoin:round"
         d="m -98.34922,-278.32721 c -0.86583,-8e-4 -2.85017,0.12668 -4.87102,1.15963 -2.69448,1.37726 -5.41091,4.65298 -5.59914,10.17974 -7.4e-4,0.0164 -0.001,0.0332 -0.002,0.0496 -10e-4,0.10178 -7.3e-4,0.39082 -0.002,0.54415 h -1.92701 v 5.2e-4 c -0.69693,2.9e-4 -1.26136,0.19113 -1.69292,0.57257 -0.4319,0.38173 -0.64751,0.89082 -0.64751,1.52704 0,0.5726 0.21561,1.0497 0.64751,1.43144 0.43189,0.38173 0.99679,0.57257 1.69447,0.57257 v -5.1e-4 h 1.92598 c 0.0167,6.95705 0.0785,18.83864 0.0785,18.83864 0.006,1.2364 1.01308,2.23376 2.24947,2.22777 1.23607,-0.006 2.23331,-1.01289 2.22777,-2.24896 0,0 -0.10327,-21.08259 -0.077,-23.37015 0.14765,-4.27423 1.6846,-5.58292 3.16104,-6.33759 1.47747,-0.75519 2.93626,-0.66819 2.93626,-0.66819 1.23272,0.0966 2.31017,-0.82502 2.40657,-2.05775 0.096,-1.23225 -0.8246,-2.30887 -2.05672,-2.40554 h -5.2e-4 c -7.1e-4,-6e-5 -0.16419,-0.0147 -0.45217,-0.015 z m -2.34404,11.93468 v 5.2e-4 c -0.69693,2.8e-4 -1.26135,0.19113 -1.69292,0.57257 -0.4319,0.38173 -0.64751,0.89082 -0.64751,1.52705 0,0.57259 0.21561,1.04969 0.64751,1.43143 0.4319,0.38173 0.99679,0.57258 1.69447,0.57258 v -5.3e-4 h 0.97307 v -4.10362 z m 0.97513,5.2e-4 v 4.10363 c 0.69768,0 1.26256,-0.19085 1.69447,-0.57258 0.4319,-0.38174 0.64802,-0.85884 0.64802,-1.43143 0,-0.63624 -0.21612,-1.14532 -0.64802,-1.52705 -0.43191,-0.38173 -0.99679,-0.57257 -1.69447,-0.57257 z" />
      <path
         style="color:#000000;font-size:44.8161px;line-height:1.25;font-family:Titillium;-inkscape-font-specification:Titillium;letter-spacing:0px;word-spacing:0px;fill:#294172;fill-opacity:1;stroke-width:0.427852;stroke-linecap:round;stroke-linejoin:round"
         d="m -67.9578,-267.32112 c -7.14819,0 -12.97592,5.87643 -12.97592,13.04862 0,7.17218 5.82773,13.04944 12.97592,13.04944 7.14818,0 12.97591,-5.87726 12.97591,-13.04944 0,-7.17219 -5.82773,-13.04862 -12.97591,-13.04862 z m 0,4.4774 c 4.71188,0 8.49852,3.80244 8.49852,8.57122 0,4.76878 -3.78664,8.57206 -8.49852,8.57206 -4.71189,0 -8.49852,-3.80328 -8.49852,-8.57206 0,-4.76878 3.78663,-8.57122 8.49852,-8.57122 z"
         id="path2033"
         inkscape:export-filename="/home/jchitas/Documents/fedora-nest/flock/flock-one-colour-black.png"
         inkscape:export-xdpi="330.37347"
         inkscape:export-ydpi="330.37347" />
      <path
         style="color:#000000;font-size:44.8161px;line-height:1.25;font-family:Titillium;-inkscape-font-specification:Titillium;letter-spacing:0px;word-spacing:0px;fill:#294172;fill-opacity:1;stroke-width:0.427852;stroke-linecap:round"
         d="m -21.86445,-278.238 c -1.23671,0.003 -2.23652,1.00866 -2.23284,2.24538 l 0.0869,32.59914 c 0.003,1.23639 1.00815,2.23606 2.24454,2.23284 1.2364,-0.003 2.23607,-1.00815 2.23285,-2.24454 l -0.0869,-32.59997 c -0.003,-1.23639 -1.00814,-2.23607 -2.24454,-2.23285 z"
         id="path2035"
         sodipodi:nodetypes="sccsccss"
         inkscape:export-filename="/home/jchitas/Documents/fedora-nest/flock/flock-one-colour-black.png"
         inkscape:export-xdpi="330.37347"
         inkscape:export-ydpi="330.37347" />
      <path
         style="color:#000000;font-size:44.8161px;line-height:1.25;font-family:Titillium;-inkscape-font-specification:Titillium;letter-spacing:0px;word-spacing:0px;fill:#294172;fill-opacity:1;stroke-width:0.427852;stroke-linecap:round;stroke-linejoin:round"
         d="m -6.36488,-267.36393 c -0.59289,-0.0344 -1.17516,0.16822 -1.61864,0.56323 l -7.97709,6.7263 c -0.0362,0.032 -0.0712,0.0652 -0.10528,0.0994 -0.57384,0.58164 -1.04924,1.09292 -1.4532,1.72394 -0.40394,0.63103 -0.73438,1.48981 -0.69525,2.37992 0.078,1.77381 1.04088,2.69995 2.0348,3.91416 l 0.007,0.0104 c 8.5e-4,8.7e-4 0.002,0.002 0.003,0.002 l 7.98485,9.95295 c 0.77581,0.96271 2.18515,1.11423 3.14788,0.33843 0.96326,-0.77586 1.11481,-2.18585 0.33844,-3.1487 l -7.99494,-9.96469 c -0.004,-0.004 -0.006,-0.007 -0.0104,-0.0117 -0.48716,-0.59603 -0.74787,-1.01612 -0.8883,-1.23759 0.13011,-0.1732 0.31364,-0.40378 0.69108,-0.78885 l 7.89516,-6.65278 c 0.92344,-0.82257 1.00501,-2.23805 0.18218,-3.16124 -0.39483,-0.44298 -0.94937,-0.71109 -1.54177,-0.7454 z"
         id="path2037"
         sodipodi:nodetypes="ccccsscccccccccccscc"
         inkscape:export-filename="/home/jchitas/Documents/fedora-nest/flock/flock-one-colour-black.png"
         inkscape:export-xdpi="330.37347"
         inkscape:export-ydpi="330.37347" />
      <path
         style="color:#000000;font-size:44.8161px;line-height:1.25;font-family:Titillium;-inkscape-font-specification:Titillium;letter-spacing:0px;word-spacing:0px;fill:#294172;fill-opacity:1;stroke-width:0.945377;stroke-linecap:round;stroke-linejoin:round"
         d="m -90.84795,-278.28195 c -1.19153,-0.002 -2.15949,0.96142 -2.16217,2.15294 0,0 -0.0364,17.97113 0.005,25.96114 0.0114,2.16105 0.62385,4.32653 2.04216,6.03601 1.4183,1.70949 3.66665,2.83311 6.32036,2.92476 1.1911,0.0409 2.18975,-0.89168 2.2305,-2.08278 0.0409,-1.1904 -0.89057,-2.18876 -2.08094,-2.23049 -1.61608,-0.0558 -2.4987,-0.58357 -3.14817,-1.36637 -0.64949,-0.78282 -1.0417,-1.9508 -1.04879,-3.30329 -0.0416,-7.94352 -0.004,-25.92974 -0.004,-25.92974 0.002,-1.19225 -0.96254,-2.16052 -2.15479,-2.16219 z"
         id="path2039"
         sodipodi:nodetypes="sccscccsccss"
         inkscape:export-filename="/home/jchitas/Documents/fedora-nest/flock/flock-one-colour-black.png"
         inkscape:export-xdpi="330.37347"
         inkscape:export-ydpi="330.37347" />
      <path
         id="path2041"
         style="font-size:44.8161px;line-height:1.25;font-family:Titillium;-inkscape-font-specification:Titillium;letter-spacing:0px;word-spacing:0px;display:inline;fill:#294172;fill-opacity:1;stroke:none;stroke-width:0.113203px;stroke-linecap:butt;stroke-linejoin:miter;stroke-opacity:1"
         d="m -16.22411,-288.01744 c -1.70182,0.92695 -1.78559,2.41218 -1.78559,2.41218 0,0 -0.65507,-0.73473 -0.18727,-1.83135 -2.98738,3.56636 -3.65475,6.95021 -3.65475,6.95021 2.0978,-1.4387 4.609,2.06726 4.609,2.06726 0.36267,-1.04348 0.39989,-1.57476 0.36637,-1.83909 0.17979,0.40577 0.6983,1.22875 2.08916,1.79223 -0.37232,-1.20751 -0.26289,-1.81655 -0.26289,-1.81655 0,0 0.29204,-0.32859 3.80974,2.96935 3.51769,3.29792 6.07158,-0.0193 6.07158,-0.0193 0,0 2.76363,-2.60535 -0.46101,-7.0517 -4.21306,-5.80931 -10.94744,-2.0697 -10.94744,-2.0697 0,0 -0.19423,-0.48875 0.3531,-1.56361 z m 2.57579,3.75446 c 1.77374,-0.003 4.39317,0.51351 5.75076,3.29547 -2.93154,-3.40915 -7.58234,-2.07788 -7.58234,-2.07788 -0.64905,0.15665 -0.76416,-0.82975 0.007,-1.02611 0,0 0.75981,-0.18938 1.82406,-0.19148 z"
         inkscape:export-filename="/home/jchitas/Documents/fedora-nest/flock/flock-one-colour-black.png"
         inkscape:export-xdpi="330.37347"
         inkscape:export-ydpi="330.37347" />
      <path
         id="path2043"
         style="font-size:44.8161px;line-height:1.25;font-family:Titillium;-inkscape-font-specification:Titillium;letter-spacing:0px;word-spacing:0px;display:inline;fill:#294172;fill-opacity:1;stroke:none;stroke-width:0.113203px;stroke-linecap:butt;stroke-linejoin:miter;stroke-opacity:1"
         d="m -112.17932,-231.71069 c 1.70182,-0.92696 1.78559,-2.41218 1.78559,-2.41218 0,0 0.65507,0.73473 0.18727,1.83135 2.98738,-3.56638 3.65475,-6.95022 3.65475,-6.95022 -2.0978,1.4387 -4.60901,-2.06726 -4.60901,-2.06726 -0.36265,1.04349 -0.39987,1.57477 -0.36636,1.83909 -0.17979,-0.40576 -0.69829,-1.22875 -2.08916,-1.79222 0.37233,1.2075 0.26289,1.81654 0.26289,1.81654 0,0 -0.29204,0.32859 -3.80974,-2.96934 -3.51769,-3.29793 -6.07157,0.0193 -6.07157,0.0193 0,0 -2.76363,2.60535 0.46099,7.0517 4.21306,5.8093 10.94744,2.0697 10.94744,2.0697 0,0 0.19423,0.48875 -0.35309,1.56361 z m -2.57579,-3.75447 c -1.77375,0.003 -4.39318,-0.51351 -5.75076,-3.29546 2.93153,3.40914 7.58233,2.07788 7.58233,2.07788 0.64907,-0.15666 0.76416,0.82974 -0.007,1.02611 0,0 -0.75982,0.18937 -1.82407,0.19147 z"
         inkscape:export-filename="/home/jchitas/Documents/fedora-nest/flock/flock-one-colour-black.png"
         inkscape:export-xdpi="330.37347"
         inkscape:export-ydpi="330.37347" />
      <path
         d="m -38.13659,-241.15657 c 3.43075,0 6.25055,-1.08092 8.45939,-3.14877 0.89293,-0.84594 0.75194,-2.06785 -0.32898,-2.96079 -0.79894,-0.65795 -1.97386,-0.56395 -2.96078,0.23499 -1.36291,1.12792 -3.00779,1.64488 -5.16963,1.64488 -4.98164,0 -8.36539,-3.71273 -8.36539,-8.78837 0,-5.31062 3.28976,-8.83536 8.13041,-8.83536 2.34982,0 4.1357,0.75194 5.73358,2.44382 0.84594,0.89294 2.02086,1.12792 2.91379,0.51696 1.12792,-0.79894 1.4099,-1.97385 0.56396,-2.96078 -2.44382,-2.8198 -5.4986,-4.2297 -9.21133,-4.2297 -7.42546,0 -12.73608,5.45161 -12.73608,13.06506 0,7.42547 5.40461,13.01806 12.97106,13.01806 z"
         style="font-weight:bold;font-size:44.8161px;line-height:1.25;font-family:Comfortaa;-inkscape-font-specification:'Comfortaa Bold';letter-spacing:0px;word-spacing:0px;fill:#294172;fill-opacity:1;stroke-width:2.93729"
         id="path2045" />
    </g>
  </g>
</svg>
