<?xml version="1.0" encoding="UTF-8" standalone="no"?>
<!-- Created with Inkscape (http://www.inkscape.org/) -->

<svg
   height="49.679382mm"
   width="50.319595mm"
   viewBox="0 0 50.319595 49.679382"
   version="1.1"
   id="svg21"
   inkscape:version="1.2.2 (b0a8486541, 2022-12-01)"
   sodipodi:docname="Sericea-logo.svg"
   xml:space="preserve"
   xmlns:inkscape="http://www.inkscape.org/namespaces/inkscape"
   xmlns:sodipodi="http://sodipodi.sourceforge.net/DTD/sodipodi-0.dtd"
   xmlns="http://www.w3.org/2000/svg"
   xmlns:svg="http://www.w3.org/2000/svg"><sodipodi:namedview
     id="namedview23"
     pagecolor="#ffffff"
     bordercolor="#000000"
     borderopacity="0.25"
     inkscape:showpageshadow="2"
     inkscape:pageopacity="0.0"
     inkscape:pagecheckerboard="0"
     inkscape:deskcolor="#d1d1d1"
     inkscape:document-units="mm"
     showgrid="false"
     inkscape:zoom="1.0708779"
     inkscape:cx="1163.0644"
     inkscape:cy="776.93265"
     inkscape:window-width="1965"
     inkscape:window-height="1099"
     inkscape:window-x="172"
     inkscape:window-y="247"
     inkscape:window-maximized="0"
     inkscape:current-layer="layer1"
     showguides="false"><sodipodi:guide
       position="-87.38581,214.6067"
       orientation="0,-1"
       id="guide4735"
       inkscape:locked="false" /><sodipodi:guide
       position="92.400832,160.2802"
       orientation="0,-1"
       id="guide4737"
       inkscape:locked="false" /><sodipodi:guide
       position="-163.8171,-37.175273"
       orientation="1,0"
       id="guide4739"
       inkscape:locked="false" /><sodipodi:guide
       position="-92.27758,84.625523"
       orientation="0,-1"
       id="guide4743"
       inkscape:locked="false" /><sodipodi:guide
       position="86.529052,137.12582"
       orientation="0,-1"
       id="guide4745"
       inkscape:locked="false" /><sodipodi:guide
       position="-179.75608,142.30941"
       orientation="1,0"
       id="guide4747"
       inkscape:locked="false" /><sodipodi:guide
       position="-221.73463,84.450813"
       orientation="1,0"
       id="guide5475"
       inkscape:locked="false" /><sodipodi:guide
       position="-191.38094,110.15495"
       orientation="0,-1"
       id="guide5477"
       inkscape:locked="false" /><sodipodi:guide
       position="89.581772,118.79663"
       orientation="0,-1"
       id="guide5479"
       inkscape:locked="false" /><sodipodi:guide
       position="-150.45463,70.124933"
       orientation="0,-1"
       id="guide5481"
       inkscape:locked="false" /><sodipodi:guide
       position="-226.75666,140.48652"
       orientation="1,0"
       id="guide5483"
       inkscape:locked="false" /><sodipodi:guide
       position="-169.84699,116.24728"
       orientation="0,-1"
       id="guide5485"
       inkscape:locked="false" /><sodipodi:guide
       position="-186.14814,101.44071"
       orientation="1,0"
       id="guide5632"
       inkscape:locked="false" /><sodipodi:guide
       position="-90.59327,16.942278"
       orientation="0,-1"
       id="guide6963"
       inkscape:locked="false" /><sodipodi:guide
       position="-185.13375,-10.152425"
       orientation="0,-1"
       id="guide7565"
       inkscape:locked="false" /><sodipodi:guide
       position="-146.78581,-56.187427"
       orientation="0,-1"
       id="guide7857"
       inkscape:locked="false" /><sodipodi:guide
       position="-102.17217,-19.513842"
       orientation="0,-1"
       id="guide8303"
       inkscape:locked="false" /><sodipodi:guide
       position="-176.04905,-15.04419"
       orientation="0,-1"
       id="guide8305"
       inkscape:locked="false" /><sodipodi:guide
       position="-200.50787,-61.253898"
       orientation="0,-1"
       id="guide8307"
       inkscape:locked="false" /><sodipodi:guide
       position="123.86473,209.90507"
       orientation="0,-1"
       id="guide3812"
       inkscape:locked="false" /><sodipodi:guide
       position="183.65601,-115.24094"
       orientation="0,-1"
       id="guide3814"
       inkscape:locked="false" /><sodipodi:guide
       position="-13.310519,150.48964"
       orientation="1,0"
       id="guide3888"
       inkscape:locked="false" /><sodipodi:guide
       position="-10.340519,115.54846"
       orientation="1,0"
       id="guide3890"
       inkscape:locked="false" /><sodipodi:guide
       position="38.919032,203.77906"
       orientation="0,-1"
       id="guide1076"
       inkscape:locked="false" /><sodipodi:guide
       position="42.022322,196.68674"
       orientation="0,-1"
       id="guide1078"
       inkscape:locked="false" /><sodipodi:guide
       position="-120.98305,-57.920369"
       orientation="0,-1"
       id="guide1340"
       inkscape:locked="false" /><sodipodi:guide
       position="40.608552,53.396943"
       orientation="0,-1"
       id="guide924"
       inkscape:locked="false" /><sodipodi:guide
       position="50.731592,21.883702"
       orientation="1,0"
       id="guide1448"
       inkscape:locked="false" /><sodipodi:guide
       position="47.895652,3.7265649"
       orientation="0,-1"
       id="guide1450"
       inkscape:locked="false" /><sodipodi:guide
       position="0.82316101,6.812348"
       orientation="1,0"
       id="guide1452"
       inkscape:locked="false" /></sodipodi:namedview><defs
     id="defs18" /><g
     inkscape:label="Layer 1"
     inkscape:groupmode="layer"
     id="layer1"
     transform="translate(-244.27169,-169.12025)"><g
       id="g1870"
       transform="translate(-0.49216379,3.6794685)"
       inkscape:export-filename="sericea-final.svg"
       inkscape:export-xdpi="200"
       inkscape:export-ydpi="200"><g
         id="g1528"
         transform="matrix(1.0132776,0,0,1.0219523,-34.78569,61.77285)"
         inkscape:export-filename="sericea-icon.png"
         inkscape:export-xdpi="200"
         inkscape:export-ydpi="200"><g
           id="g1492"
           style="fill:#51a2da"
           transform="matrix(0.45141667,0,0,0.52000347,250.65883,84.74677)"><g
             id="g1490"
             transform="rotate(16.649409,99.855063,47.01628)"><ellipse
               style="opacity:1;fill:#51a2da;fill-opacity:1;stroke:none;stroke-width:2.71573;stroke-linecap:round;stroke-linejoin:round;stroke-dasharray:none;stroke-dashoffset:1.13386;stroke-opacity:1;paint-order:fill markers stroke"
               id="ellipse1470"
               cx="-34.377171"
               cy="114.67045"
               rx="20.84458"
               ry="21.419458"
               transform="matrix(0.04340424,-0.99905759,0.99017407,0.13984033,0,0)"
               inkscape:export-filename="sericea-v3.png"
               inkscape:export-xdpi="96"
               inkscape:export-ydpi="96" /><ellipse
               style="opacity:1;fill:#51a2da;fill-opacity:1;stroke:none;stroke-width:1.83593;stroke-linecap:round;stroke-linejoin:round;stroke-dasharray:none;stroke-dashoffset:1.13386;stroke-opacity:1;paint-order:fill markers stroke"
               id="ellipse1472"
               cx="99.872162"
               cy="-125.03208"
               rx="12.628014"
               ry="16.158819"
               transform="matrix(0.07548212,0.99714716,-0.98491668,0.17302926,0,0)" /><ellipse
               style="opacity:1;fill:#51a2da;fill-opacity:1;stroke:none;stroke-width:1.60277;stroke-linecap:round;stroke-linejoin:round;stroke-dasharray:none;stroke-dashoffset:1.13386;stroke-opacity:1;paint-order:fill markers stroke"
               id="ellipse1474"
               cx="99.758514"
               cy="-93.717102"
               rx="13.476415"
               ry="11.540007"
               transform="matrix(0.88095379,-0.4732023,-0.44276398,-0.8966382,0,0)" /><ellipse
               style="opacity:1;fill:#51a2da;fill-opacity:1;stroke:none;stroke-width:2.38274;stroke-linecap:round;stroke-linejoin:round;stroke-dasharray:none;stroke-dashoffset:1.13386;stroke-opacity:1;paint-order:fill markers stroke"
               id="ellipse1476"
               cx="126.38613"
               cy="86.189049"
               rx="19.914989"
               ry="17.258463"
               transform="matrix(0.95542391,-0.29523744,0.3079976,0.95138713,0,0)" /><ellipse
               style="opacity:1;fill:#51a2da;fill-opacity:1;stroke:none;stroke-width:1.97314;stroke-linecap:round;stroke-linejoin:round;stroke-dasharray:none;stroke-dashoffset:1.13386;stroke-opacity:1;paint-order:fill markers stroke"
               id="ellipse1478"
               cx="143.79184"
               cy="-67.532951"
               rx="14.133142"
               ry="16.676609"
               transform="matrix(0.67447229,0.73830016,-0.79184973,0.61071598,0,0)" /><ellipse
               style="opacity:1;fill:#51a2da;fill-opacity:1;stroke:none;stroke-width:1.78328;stroke-linecap:round;stroke-linejoin:round;stroke-dasharray:none;stroke-dashoffset:1.13386;stroke-opacity:1;paint-order:fill markers stroke"
               id="ellipse1480"
               cx="36.556019"
               cy="91.120682"
               rx="15.238711"
               ry="14.102328"
               transform="matrix(0.88544371,-0.46474663,0.61520052,0.78837068,0,0)" /><ellipse
               style="opacity:1;fill:#51a2da;fill-opacity:1;stroke:none;stroke-width:1.6338;stroke-linecap:round;stroke-linejoin:round;stroke-dasharray:none;stroke-dashoffset:1.13386;stroke-opacity:1;paint-order:fill markers stroke"
               id="ellipse1482"
               cx="62.563232"
               cy="83.180588"
               rx="13.913281"
               ry="12.964731"
               transform="matrix(0.98458435,-0.17491043,0.1690914,0.98560037,0,0)" /><ellipse
               style="opacity:1;fill:#51a2da;fill-opacity:1;stroke:none;stroke-width:1.69325;stroke-linecap:round;stroke-linejoin:round;stroke-dasharray:none;stroke-dashoffset:1.13386;stroke-opacity:1;paint-order:fill markers stroke"
               id="ellipse1484"
               cx="32.934757"
               cy="-123.66684"
               rx="13.315683"
               ry="14.550267"
               transform="matrix(-0.64310257,0.76578005,-0.86703767,-0.49824259,0,0)" /><ellipse
               style="opacity:1;fill:#51a2da;fill-opacity:1;stroke:none;stroke-width:1.69107;stroke-linecap:round;stroke-linejoin:round;stroke-dasharray:none;stroke-dashoffset:1.13386;stroke-opacity:1;paint-order:fill markers stroke"
               id="ellipse1486"
               cx="70.631767"
               cy="-131.58408"
               rx="12.631855"
               ry="15.298587"
               transform="matrix(-0.3102496,0.95065513,-0.98824186,-0.15289873,0,0)" /><ellipse
               style="opacity:1;fill:#51a2da;fill-opacity:1;stroke:none;stroke-width:2.92771;stroke-linecap:round;stroke-linejoin:round;stroke-dasharray:none;stroke-dashoffset:1.13386;stroke-opacity:1;paint-order:fill markers stroke"
               id="ellipse1488"
               cx="112.21475"
               cy="87.758163"
               rx="34.669376"
               ry="16.707243"
               transform="matrix(0.97308177,-0.23046015,0.05444096,0.99851699,0,0)" /></g></g><g
           id="g1496"
           transform="matrix(0.86129336,0,0,1.0203603,265.94984,-128.58349)"><path
             id="path1494"
             style="fill:#294172;stroke-width:7;stroke-linecap:round;stroke-linejoin:round;stroke-dashoffset:1.13386;stroke-opacity:0.988235;paint-order:fill markers stroke"
             d="m 39.918303,238.63811 c 0.351053,6.34504 -5.316202,12.01466 -6.679462,12.07616 -1.36326,0.0615 -3.882583,-4.70432 -8.448381,-6.66024 -4.565798,-1.95592 -8.518068,-1.65036 -1.38021,2.4861 7.137858,4.13647 6.552873,7.6598 6.960895,9.69042 0.805905,4.01078 -1.728636,12.37875 -1.979776,14.89619 -0.25114,2.51744 1.307283,1.85308 3.890037,1.91336 2.431424,0.0567 1.977139,-3.4679 2.520015,-6.37005 0.874207,-4.67339 0.514771,-8.87014 2.432012,-10.95989 1.341248,-1.46193 13.137263,-2.30124 17.803518,-5.20245 4.666255,-2.90121 5.06911,-4.01529 7.42814,-8.39289 3.078676,-5.57085 1.144016,-5.31848 -1.996964,-1.03886 -3.897408,5.26086 -6.683365,6.53762 -11.667191,8.17679 -3.493156,1.13718 -7.135417,2.31841 -8.643305,1.22021 -0.753944,-0.5491 2.304659,-5.14071 2.736843,-8.13682 0.430365,-2.9835 -0.319274,-5.6028 -0.808602,-7.15461 -1.346593,-4.27043 -2.518622,-2.88846 -2.167569,3.45658 z"
             sodipodi:nodetypes="zzzzszssszcccsssz" /></g></g><g
         id="g971"
         transform="translate(11.534854,57.06493)"><g
           id="g726"
           transform="matrix(3.0187262,0,0,3.0187262,560.42585,-1418.5868)"
           style="stroke-width:0.604663"><text
             id="text706"
             y="522.18945"
             x="-89.40757"
             style="font-style:normal;font-weight:normal;font-size:4.81276px;line-height:0%;font-family:sans-serif;letter-spacing:0px;word-spacing:0px;fill:#294172;fill-opacity:1;stroke:none;stroke-width:0.170649"
             xml:space="preserve"><tspan
               style="font-style:normal;font-variant:normal;font-weight:500;font-stretch:normal;font-size:8.17379px;line-height:125%;font-family:Montserrat;-inkscape-font-specification:'Montserrat Medium';text-align:start;writing-mode:lr-tb;text-anchor:start;fill:#294172;fill-opacity:1;stroke-width:0.170649"
               y="522.18945"
               x="-89.40757"
               id="tspan704"
               sodipodi:role="line">SERICEA</tspan></text><g
             id="g724"
             style="fill:#51a2da;fill-opacity:1;stroke-width:1.27854"
             transform="matrix(0.16423278,0,0,0.16423278,-102.1332,490.33671)"><path
               d="m 96.729167,125.3578 c -3.595373,1.38954 -6.03555,4.80292 -6.045574,9.01632 -0.0105,4.41352 3.082522,10.10943 9.487987,10.15149 4.30838,0.0283 6.46291,-1.58283 7.62603,-2.6768 0.77153,-0.68369 0.8255,-1.87009 0.11854,-2.61974 -0.70838,-0.75106 -1.89761,-0.76906 -2.6268,-0.0385 -0.86818,0.81562 -2.14666,2.02425 -5.772524,1.62173 -1.555755,-0.17216 -3.227339,-1.43528 -3.785318,-2.40173 l 11.879842,-5.05073 c 0.9084,-0.40358 1.32573,-1.45803 0.94121,-2.37421 -2.12076,-4.1731 -5.88103,-7.92444 -11.823393,-5.62783 z m 7.456683,5.48995 -9.885684,4.22249 c -0.705852,-2.63428 2.187448,-5.73353 3.76568,-6.31024 2.366314,-0.86468 4.977204,0.10837 6.120004,2.08775 z"
               style="fill:#51a2da;fill-opacity:1;fill-rule:evenodd;stroke:none;stroke-width:1.29884"
               id="path708"
               sodipodi:nodetypes="ssscccccccsccsc" /><path
               id="path710"
               style="fill:#51a2da;fill-opacity:1;stroke-width:37.9912;stroke-linecap:round;stroke-linejoin:round"
               d="m 142.75841,124.51519 a 10.043481,9.9623653 0 0 0 -10.04462,9.9635 10.043481,9.9623653 0 0 0 10.04462,9.96093 10.043481,9.9623653 0 0 0 10.04204,-9.96093 10.043481,9.9623653 0 0 0 -10.04204,-9.9635 z m 0,3.73185 a 6.2822799,6.2315417 0 0 1 6.28239,6.23165 6.2822799,6.2315417 0 0 1 -6.28239,6.23165 6.2822799,6.2315417 0 0 1 -6.2824,-6.23165 6.2822799,6.2315417 0 0 1 6.2824,-6.23165 z" /><path
               style="color:#000000;font-style:normal;font-variant:normal;font-weight:normal;font-stretch:normal;font-size:medium;line-height:normal;font-family:sans-serif;font-variant-ligatures:normal;font-variant-position:normal;font-variant-caps:normal;font-variant-numeric:normal;font-variant-alternates:normal;font-feature-settings:normal;text-indent:0;text-align:start;text-decoration:none;text-decoration-line:none;text-decoration-style:solid;text-decoration-color:#000000;letter-spacing:normal;word-spacing:normal;text-transform:none;writing-mode:lr-tb;direction:ltr;text-orientation:mixed;dominant-baseline:auto;baseline-shift:baseline;text-anchor:start;white-space:normal;shape-padding:0;clip-rule:nonzero;display:inline;overflow:visible;visibility:visible;isolation:auto;mix-blend-mode:normal;color-interpolation:sRGB;color-interpolation-filters:linearRGB;solid-color:#000000;solid-opacity:1;vector-effect:none;fill:#51a2da;fill-opacity:1;fill-rule:nonzero;stroke:none;stroke-width:7.79293;stroke-linecap:round;stroke-linejoin:round;stroke-miterlimit:4;stroke-dasharray:none;stroke-dashoffset:0;stroke-opacity:1;color-rendering:auto;image-rendering:auto;shape-rendering:auto;text-rendering:auto;enable-background:accumulate"
               d="m 157.27615,124.6433 c -1.59548,0 -1.86142,1.31669 -1.85308,1.84776 v 15.98997 c -0.0436,1.03365 0.81202,1.89464 1.88299,1.89464 1.07096,0 1.92667,-0.86099 1.88297,-1.89464 0,0 0.0284,-5.94671 0,-9.75342 -0.0284,-3.80671 3.06985,-4.63179 4.14789,-4.63179 0.80054,0 1.44015,0.44589 2.0745,0.42206 0.94151,-0.0354 1.71459,-0.6668 1.71459,-1.77397 -0.0283,-1.78855 -2.22269,-2.04245 -3.84053,-2.00941 -1.61785,0.0331 -2.9842,0.52982 -4.16721,1.2363 0,0 -0.24663,-1.3275 -1.84212,-1.3275 z"
               id="path712"
               inkscape:connector-curvature="0"
               sodipodi:nodetypes="zccsczcsczcz" /><g
               style="fill:#51a2da;fill-opacity:1;stroke-width:2.08199"
               transform="matrix(1.7992734,0,0,1.7380239,67.446745,-121.99926)"
               id="g716"><path
                 style="color:#000000;font-style:normal;font-variant:normal;font-weight:normal;font-stretch:normal;font-size:medium;line-height:normal;font-family:sans-serif;font-variant-ligatures:normal;font-variant-position:normal;font-variant-caps:normal;font-variant-numeric:normal;font-variant-alternates:normal;font-feature-settings:normal;text-indent:0;text-align:start;text-decoration:none;text-decoration-line:none;text-decoration-style:solid;text-decoration-color:#000000;letter-spacing:normal;word-spacing:normal;text-transform:none;writing-mode:lr-tb;direction:ltr;text-orientation:mixed;dominant-baseline:auto;baseline-shift:baseline;text-anchor:start;white-space:normal;shape-padding:0;clip-rule:nonzero;display:inline;overflow:visible;visibility:visible;opacity:1;isolation:auto;mix-blend-mode:normal;color-interpolation:sRGB;color-interpolation-filters:linearRGB;solid-color:#000000;solid-opacity:1;vector-effect:none;fill:#51a2da;fill-opacity:1;fill-rule:nonzero;stroke:none;stroke-width:4.40682;stroke-linecap:butt;stroke-linejoin:miter;stroke-miterlimit:4;stroke-dasharray:none;stroke-dashoffset:0;stroke-opacity:1;color-rendering:auto;image-rendering:auto;shape-rendering:auto;text-rendering:auto;enable-background:accumulate"
                 d="m 60.088341,141.88715 c -1.393394,0 -2.398273,0.42786 -3.13079,0.97048 -1.110459,0.82303 0.08453,2.54386 1.19499,1.72083 0.505399,-0.37438 0.881229,-0.57413 1.9358,-0.57413 1.312636,0.0273 2.368475,0.53812 2.368475,1.55443 -0.703746,0.461 -3.763534,0.84205 -5.406566,1.8093 -1.643032,0.96724 -1.555977,2.18804 -1.555977,2.98017 0,1.73757 1.769154,2.90976 3.301505,2.90976 1.532352,0 2.182891,-0.33275 3.682046,-1.39626 v 0.30438 c -0.04845,1.45961 2.09629,1.45961 2.047845,0 v -6.23787 c 0.0066,-2.58701 -1.787667,-4.00169 -4.437328,-4.04109 z m 2.439505,5.75572 c -5.12e-4,0.68595 0.0092,0.8837 -0.009,1.56941 -0.004,0.8235 -0.503683,1.20524 -1.026925,1.52032 -0.523236,0.31508 -1.586095,0.59147 -2.201906,0.62167 -0.710308,0.0243 -1.65271,-0.1418 -1.702203,-1.01389 5.12e-4,-0.5264 0.246817,-0.85289 0.65127,-1.21646 0.957742,-0.74385 2.255423,-0.99358 4.288768,-1.48105 z"
                 id="path714"
                 inkscape:connector-curvature="0"
                 sodipodi:nodetypes="ccccczszcccccscscccss" /></g><path
               style="font-style:normal;font-variant:normal;font-weight:bold;font-stretch:normal;font-size:medium;line-height:25px;font-family:Comfortaa;-inkscape-font-specification:Comfortaa;letter-spacing:0px;word-spacing:0px;fill:#51a2da;fill-opacity:1;stroke:none;stroke-width:1.96187px;stroke-linecap:butt;stroke-linejoin:miter;stroke-opacity:1"
               d="m 128.56291,116.32562 c -1.15198,-0.0687 -2.00005,1.07152 -1.82333,2.15483 v 8.36367 c -3.63641,-3.04884 -9.55863,-2.83682 -12.91558,0.5392 -3.39481,3.02498 -4.03972,8.51062 -1.57068,12.28835 1.81366,2.85198 5.13136,4.88571 8.55043,4.72423 2.14993,-0.0196 4.2827,-0.9455 5.93583,-2.31651 -0.16962,1.08236 0.66623,2.22553 1.82333,2.15604 1.13581,0.0506 2.01523,-1.07045 1.84088,-2.15482 -0.0197,-8.04418 0.0197,-16.08885 -0.0197,-24.13274 -0.0591,-0.90718 -0.92676,-1.65309 -1.83241,-1.62225 z m -7.9771,12.01866 c 3.28298,-0.0857 6.21551,2.86987 6.15377,6.12271 0.069,3.25587 -2.87355,6.20634 -6.15377,6.12273 -3.11889,0.0827 -5.97784,-2.55935 -6.1372,-5.65665 -0.33212,-3.1928 2.28898,-6.30485 5.49957,-6.55826 0.21182,-0.0207 0.42464,-0.0306 0.63763,-0.0306 z"
               id="path718"
               inkscape:connector-curvature="0"
               sodipodi:nodetypes="ccccccccccccccccccc" /><g
               style="fill:#51a2da;fill-opacity:1;stroke-width:2.1356"
               transform="matrix(1.7361841,0,0,1.7118711,84.821887,-122.89238)"
               id="g722"><path
                 style="font-style:normal;font-variant:normal;font-weight:bold;font-stretch:normal;font-size:medium;line-height:25px;font-family:Comfortaa;-inkscape-font-specification:Comfortaa;letter-spacing:0px;word-spacing:0px;fill:#51a2da;fill-opacity:1;stroke:none;stroke-width:4.52034;stroke-linecap:butt;stroke-linejoin:miter;stroke-miterlimit:4;stroke-dasharray:none;stroke-opacity:1"
                 d="m -2.5312666,143.62929 v 11.47421 c -0.003,1.4145 2.12023294,1.4145 2.11718234,0 v -7.65727 H 1.7635608 c 0.5092674,0 0.9446445,-0.37386 0.9446445,-0.9741 0,-0.60024 -0.4664127,-0.9648 -0.9446445,-0.9648 h -2.17764176 v -1.76487 c 0,-1.1293 0.8711995,-2.06801 2.62476896,-2.04625 0.6099425,0.008 0.8261384,0.1567 1.048907,0.29442 1.2161282,0.81695 2.3869012,-1.07509 1.1131122,-1.79886 -0.7812122,-0.48483 -1.5111158,-0.65571 -2.3819993,-0.65571 -2.74449516,0 -4.5059235,2.11423 -4.5219745,4.09323 z"
                 id="path720"
                 inkscape:connector-curvature="0"
                 sodipodi:nodetypes="ccccczcccscccc" /></g></g></g></g></g></g></svg>
